{
  "appenders": [
    {
      "type": "console",
      "layout": {
        "type": "pattern",
        "pattern": "%d{MM-dd-yy} %r %[%-3c%] %[%-5p%] %m"
      }
    },
    {
      "type": "file",
      "filename": "logs/ingest.log",
      "maxLogSize": 10485760,
      "backups": 10,

      "layout": {
        "type": "pattern",
        "pattern": "%d{MM-dd-yy} %r %-3c %-5p %m"
      }
    }
  ]
}